<mxfile host="app.diagrams.net" modified="2021-11-26T15:11:23.006Z" agent="5.0 (Windows NT 10.0; Win64; x64) AppleWebKit/537.36 (KHTML, like Gecko) Chrome/96.0.4664.45 Safari/537.36" etag="_hhDTGKjH8QOOwNd2h21" version="15.8.6" type="gitlab">
  <diagram name="Page-1" id="ad52d381-51e7-2e0d-a935-2d0ddd2fd229">
    <mxGraphModel dx="5688" dy="3898" grid="1" gridSize="10" guides="1" tooltips="1" connect="1" arrows="1" fold="1" page="1" pageScale="1" pageWidth="1100" pageHeight="850" background="none" math="0" shadow="0">
      <root>
        <mxCell id="0" />
        <mxCell id="1" parent="0" />
        <mxCell id="2c924340bb9dbf6c-3" value="&lt;span&gt;кейс, событие произошедшее с пациентом&lt;br&gt;&lt;/span&gt;" style="ellipse;whiteSpace=wrap;html=1;rounded=1;shadow=1;comic=0;labelBackgroundColor=none;strokeWidth=2;fontFamily=Verdana;fontSize=12;align=center;fillColor=#60A917;strokeColor=#2D7600;fontColor=#ffffff;gradientColor=#005700;" parent="1" vertex="1">
          <mxGeometry x="2640" y="440" width="120" height="80" as="geometry" />
        </mxCell>
        <mxCell id="5TCaiy2GnwxlKZLwlHfc-2" value="metadata, содержит кодированные значения метаданных&amp;nbsp;" style="ellipse;whiteSpace=wrap;html=1;fillColor=#6a00ff;strokeColor=#3700CC;fontColor=#ffffff;" vertex="1" parent="1">
          <mxGeometry x="1120" y="-240" width="140" height="90" as="geometry" />
        </mxCell>
        <mxCell id="5TCaiy2GnwxlKZLwlHfc-10" style="edgeStyle=orthogonalEdgeStyle;rounded=0;orthogonalLoop=1;jettySize=auto;html=1;exitX=0.5;exitY=1;exitDx=0;exitDy=0;" edge="1" parent="1">
          <mxGeometry relative="1" as="geometry">
            <mxPoint x="1040" y="95" as="sourcePoint" />
            <mxPoint x="1040" y="95" as="targetPoint" />
          </mxGeometry>
        </mxCell>
        <mxCell id="5TCaiy2GnwxlKZLwlHfc-22" value="KPI- некий параметр события" style="rounded=1;whiteSpace=wrap;html=1;arcSize=50;fillColor=#0050EF;strokeColor=#001DBC;fontColor=#ffffff;gradientColor=#2525BA;" vertex="1" parent="1">
          <mxGeometry x="2320" y="-350" width="150" height="60" as="geometry" />
        </mxCell>
        <mxCell id="5TCaiy2GnwxlKZLwlHfc-26" value="&lt;h1&gt;KPI_ID&lt;/h1&gt;&lt;p&gt;идентификатор kpi к которому относится это значение, по спрfвочнику oncopasport-kpis, например &quot;диагноз по МКБ10&quot;&lt;/p&gt;" style="text;html=1;strokeColor=#001DBC;fillColor=#0050ef;spacing=5;spacingTop=-20;whiteSpace=wrap;overflow=hidden;rounded=0;fontColor=#ffffff;gradientColor=#2525BA;" vertex="1" parent="1">
          <mxGeometry x="1920" y="-650" width="180" height="130" as="geometry" />
        </mxCell>
        <mxCell id="5TCaiy2GnwxlKZLwlHfc-39" value="&lt;h1&gt;value&lt;/h1&gt;&lt;p&gt;значение события, например С18.2&lt;/p&gt;" style="text;html=1;strokeColor=#001DBC;fillColor=#0050ef;spacing=5;spacingTop=-20;whiteSpace=wrap;overflow=hidden;rounded=0;fontColor=#ffffff;gradientColor=#2525BA;" vertex="1" parent="1">
          <mxGeometry x="2530" y="-750" width="140" height="90" as="geometry" />
        </mxCell>
        <mxCell id="5TCaiy2GnwxlKZLwlHfc-41" value="&lt;h1&gt;unit&lt;/h1&gt;&lt;p&gt;единица измерения kpi, значение по справочнику&amp;nbsp;oncopassport-units, используется не для всех kpi, например для kpi&amp;nbsp;1003870 будет нужно установить единиц измерения&lt;/p&gt;" style="text;html=1;strokeColor=#001DBC;fillColor=#0050ef;spacing=5;spacingTop=-20;whiteSpace=wrap;overflow=hidden;rounded=0;fontColor=#ffffff;gradientColor=#2525BA;" vertex="1" parent="1">
          <mxGeometry x="2200" y="-770" width="210" height="150" as="geometry" />
        </mxCell>
        <mxCell id="5TCaiy2GnwxlKZLwlHfc-43" value="&lt;h1&gt;date&lt;/h1&gt;&lt;p&gt;дата фиксации значения KPI.&lt;/p&gt;&lt;p&gt;Например - дата установления диагноза&lt;/p&gt;" style="text;html=1;strokeColor=#001DBC;fillColor=#0050ef;spacing=5;spacingTop=-20;whiteSpace=wrap;overflow=hidden;rounded=0;fontColor=#ffffff;gradientColor=#2525BA;" vertex="1" parent="1">
          <mxGeometry x="2770" y="-580" width="210" height="120" as="geometry" />
        </mxCell>
        <mxCell id="5TCaiy2GnwxlKZLwlHfc-45" value="&lt;h1&gt;participants&lt;/h1&gt;&lt;p&gt;участники установления значения KPI.(их может быть несколько)&lt;/p&gt;&lt;p&gt;Например - врач установивший диагноз&lt;/p&gt;" style="text;html=1;strokeColor=#6F0000;fillColor=#A20025;spacing=5;spacingTop=-20;whiteSpace=wrap;overflow=hidden;rounded=0;fontColor=#ffffff;gradientColor=#0050EF;" vertex="1" parent="1">
          <mxGeometry x="1620" y="-500" width="210" height="130" as="geometry" />
        </mxCell>
        <mxCell id="5TCaiy2GnwxlKZLwlHfc-47" value="&lt;b&gt;Participant&lt;/b&gt; - участник медицинского события со стороны МО, напрмиер врач или лаборант" style="ellipse;whiteSpace=wrap;html=1;aspect=fixed;fillColor=#a20025;fontColor=#ffffff;strokeColor=#6F0000;" vertex="1" parent="1">
          <mxGeometry x="250" y="-555" width="130" height="130" as="geometry" />
        </mxCell>
        <mxCell id="5TCaiy2GnwxlKZLwlHfc-50" value="&lt;h1&gt;calculated&lt;/h1&gt;&lt;p&gt;признак того, является ли значение KPI вычисляемым или оно получено из другого источника.&lt;/p&gt;&lt;p&gt;Например&lt;/p&gt;" style="text;html=1;strokeColor=#001DBC;fillColor=#0050ef;spacing=5;spacingTop=-20;whiteSpace=wrap;overflow=hidden;rounded=0;fontColor=#ffffff;gradientColor=#2525BA;" vertex="1" parent="1">
          <mxGeometry x="2790" y="-350" width="210" height="120" as="geometry" />
        </mxCell>
        <mxCell id="5TCaiy2GnwxlKZLwlHfc-52" value="&lt;h1&gt;ignored&lt;/h1&gt;&lt;p&gt;признак того, является ли значение KPI игнорируемым, т.е. будет ли оно использоваеться в отчетах и тп&lt;/p&gt;&lt;p&gt;Например&lt;/p&gt;" style="text;html=1;strokeColor=#001DBC;fillColor=#0050ef;spacing=5;spacingTop=-20;whiteSpace=wrap;overflow=hidden;rounded=0;fontColor=#ffffff;gradientColor=#2525BA;" vertex="1" parent="1">
          <mxGeometry x="2800" y="-100" width="210" height="120" as="geometry" />
        </mxCell>
        <mxCell id="5TCaiy2GnwxlKZLwlHfc-54" value="events - медицинские события, направления, посещения и тп" style="ellipse;whiteSpace=wrap;html=1;fillColor=#FFCD28;strokeColor=#d79b00;gradientColor=#ffa500;fontStyle=1" vertex="1" parent="1">
          <mxGeometry x="720" y="757" width="150" height="110" as="geometry" />
        </mxCell>
        <mxCell id="5TCaiy2GnwxlKZLwlHfc-56" value="&lt;h1&gt;event_id&lt;/h1&gt;&lt;div&gt;внутренний идентификатор события(ни к чему не привязан)&lt;/div&gt;" style="text;html=1;strokeColor=#d79b00;fillColor=#ffcd28;spacing=5;spacingTop=-20;whiteSpace=wrap;overflow=hidden;rounded=0;gradientColor=#ffa500;" vertex="1" parent="1">
          <mxGeometry x="280" y="910" width="180" height="100" as="geometry" />
        </mxCell>
        <mxCell id="5TCaiy2GnwxlKZLwlHfc-58" value="&lt;h1&gt;metadata&lt;/h1&gt;&lt;p&gt;Метаданные медицинского события,&amp;nbsp;oncopassport-kpi-metadata&lt;/p&gt;" style="text;html=1;strokeColor=#3700CC;fillColor=#6a00ff;spacing=5;spacingTop=-20;whiteSpace=wrap;overflow=hidden;rounded=0;fontColor=#ffffff;gradientColor=#FFCD28;" vertex="1" parent="1">
          <mxGeometry x="720" y="440" width="140" height="120" as="geometry" />
        </mxCell>
        <mxCell id="5TCaiy2GnwxlKZLwlHfc-65" value="" style="endArrow=none;html=1;strokeWidth=2;rounded=0;entryX=0;entryY=0.5;entryDx=0;entryDy=0;strokeColor=#001DBC;fillColor=#0050ef;startArrow=classic;startFill=1;" edge="1" parent="1" source="5TCaiy2GnwxlKZLwlHfc-45" target="5TCaiy2GnwxlKZLwlHfc-22">
          <mxGeometry width="50" height="50" relative="1" as="geometry">
            <mxPoint x="2410" y="-37.16000000000008" as="sourcePoint" />
            <mxPoint x="2424.7" y="-210" as="targetPoint" />
          </mxGeometry>
        </mxCell>
        <mxCell id="5TCaiy2GnwxlKZLwlHfc-66" value="" style="endArrow=none;html=1;strokeWidth=2;rounded=0;entryX=0.144;entryY=0.056;entryDx=0;entryDy=0;entryPerimeter=0;strokeColor=#001DBC;fillColor=#0050ef;startArrow=classic;startFill=1;" edge="1" parent="1" source="5TCaiy2GnwxlKZLwlHfc-26" target="5TCaiy2GnwxlKZLwlHfc-22">
          <mxGeometry width="50" height="50" relative="1" as="geometry">
            <mxPoint x="2250" y="-223.0769230769231" as="sourcePoint" />
            <mxPoint x="2430" y="-240" as="targetPoint" />
          </mxGeometry>
        </mxCell>
        <mxCell id="5TCaiy2GnwxlKZLwlHfc-67" value="" style="endArrow=none;html=1;strokeWidth=2;rounded=0;entryX=0.5;entryY=0;entryDx=0;entryDy=0;exitX=0.25;exitY=1;exitDx=0;exitDy=0;strokeColor=#001DBC;fillColor=#0050ef;startArrow=classic;startFill=1;" edge="1" parent="1" source="5TCaiy2GnwxlKZLwlHfc-41" target="5TCaiy2GnwxlKZLwlHfc-22">
          <mxGeometry width="50" height="50" relative="1" as="geometry">
            <mxPoint x="2517.2972972972966" y="-425" as="sourcePoint" />
            <mxPoint x="2660" y="-305" as="targetPoint" />
          </mxGeometry>
        </mxCell>
        <mxCell id="5TCaiy2GnwxlKZLwlHfc-68" value="" style="endArrow=none;html=1;strokeWidth=2;rounded=0;entryX=0.75;entryY=0;entryDx=0;entryDy=0;exitX=0.129;exitY=0.989;exitDx=0;exitDy=0;exitPerimeter=0;strokeColor=#001DBC;fillColor=#0050ef;startArrow=classic;startFill=1;" edge="1" parent="1" source="5TCaiy2GnwxlKZLwlHfc-39" target="5TCaiy2GnwxlKZLwlHfc-22">
          <mxGeometry width="50" height="50" relative="1" as="geometry">
            <mxPoint x="2580" y="-500" as="sourcePoint" />
            <mxPoint x="2707.5" y="-260" as="targetPoint" />
          </mxGeometry>
        </mxCell>
        <mxCell id="5TCaiy2GnwxlKZLwlHfc-69" value="" style="endArrow=none;html=1;strokeWidth=2;rounded=0;exitX=-0.014;exitY=0.575;exitDx=0;exitDy=0;exitPerimeter=0;fillColor=#0050ef;strokeColor=#001DBC;startArrow=classic;startFill=1;" edge="1" parent="1" source="5TCaiy2GnwxlKZLwlHfc-43" target="5TCaiy2GnwxlKZLwlHfc-22">
          <mxGeometry width="50" height="50" relative="1" as="geometry">
            <mxPoint x="2728.06" y="-470.99" as="sourcePoint" />
            <mxPoint x="2580" y="-210" as="targetPoint" />
          </mxGeometry>
        </mxCell>
        <mxCell id="5TCaiy2GnwxlKZLwlHfc-70" value="" style="endArrow=none;html=1;strokeWidth=2;rounded=0;entryX=0.933;entryY=0.5;entryDx=0;entryDy=0;exitX=0.01;exitY=0.625;exitDx=0;exitDy=0;exitPerimeter=0;entryPerimeter=0;fillColor=#0050ef;strokeColor=#001DBC;startArrow=classic;startFill=1;" edge="1" parent="1" source="5TCaiy2GnwxlKZLwlHfc-50" target="5TCaiy2GnwxlKZLwlHfc-22">
          <mxGeometry width="50" height="50" relative="1" as="geometry">
            <mxPoint x="2787.0600000000004" y="-385.5" as="sourcePoint" />
            <mxPoint x="2550" y="-194.5" as="targetPoint" />
          </mxGeometry>
        </mxCell>
        <mxCell id="5TCaiy2GnwxlKZLwlHfc-71" value="" style="endArrow=none;html=1;strokeWidth=2;rounded=0;entryX=0.921;entryY=0.929;entryDx=0;entryDy=0;exitX=0;exitY=0;exitDx=0;exitDy=0;entryPerimeter=0;fillColor=#0050ef;strokeColor=#001DBC;endFill=0;startArrow=classic;startFill=1;" edge="1" parent="1" source="5TCaiy2GnwxlKZLwlHfc-52" target="5TCaiy2GnwxlKZLwlHfc-22">
          <mxGeometry width="50" height="50" relative="1" as="geometry">
            <mxPoint x="2802.1000000000004" y="-265" as="sourcePoint" />
            <mxPoint x="2560" y="-184.5" as="targetPoint" />
          </mxGeometry>
        </mxCell>
        <mxCell id="5TCaiy2GnwxlKZLwlHfc-75" value="&lt;h1&gt;metadata&lt;/h1&gt;&lt;p&gt;Метаданные медицинского события,&amp;nbsp;oncopassport-kpi-metadata&lt;/p&gt;" style="text;html=1;strokeColor=#3700CC;fillColor=#6a00ff;spacing=5;spacingTop=-20;whiteSpace=wrap;overflow=hidden;rounded=0;fontColor=#ffffff;gradientColor=#0050EF;" vertex="1" parent="1">
          <mxGeometry x="1860" y="-260" width="140" height="120" as="geometry" />
        </mxCell>
        <mxCell id="5TCaiy2GnwxlKZLwlHfc-76" value="" style="endArrow=none;html=1;strokeWidth=2;rounded=0;entryX=0;entryY=0.75;entryDx=0;entryDy=0;strokeColor=#001DBC;fillColor=#0050ef;startArrow=classic;startFill=1;" edge="1" parent="1" source="5TCaiy2GnwxlKZLwlHfc-75" target="5TCaiy2GnwxlKZLwlHfc-22">
          <mxGeometry width="50" height="50" relative="1" as="geometry">
            <mxPoint x="2070" y="-100" as="sourcePoint" />
            <mxPoint x="1640" y="-50" as="targetPoint" />
          </mxGeometry>
        </mxCell>
        <mxCell id="5TCaiy2GnwxlKZLwlHfc-77" value="&lt;h1&gt;id&lt;/h1&gt;&lt;p&gt;Идентификатор записи в источнике&lt;/p&gt;&lt;p&gt;метадата для разных объектов разная, например&amp;nbsp;&lt;br&gt;oncopassport-event-metadata - метадата события&lt;br&gt;&lt;/p&gt;" style="text;html=1;strokeColor=#3700CC;fillColor=#6a00ff;spacing=5;spacingTop=-20;whiteSpace=wrap;overflow=hidden;rounded=0;fontColor=#ffffff;" vertex="1" parent="1">
          <mxGeometry x="760" y="-340" width="190" height="155" as="geometry" />
        </mxCell>
        <mxCell id="5TCaiy2GnwxlKZLwlHfc-78" value="&lt;h1&gt;&lt;span&gt;value&lt;/span&gt;&lt;/h1&gt;&lt;h1&gt;&lt;span style=&quot;font-size: 12px ; font-weight: 400&quot;&gt;значение&lt;/span&gt;&lt;/h1&gt;" style="text;html=1;strokeColor=#3700CC;fillColor=#6a00ff;spacing=5;spacingTop=-20;whiteSpace=wrap;overflow=hidden;rounded=0;fontColor=#ffffff;" vertex="1" parent="1">
          <mxGeometry x="1080" y="-400" width="190" height="80" as="geometry" />
        </mxCell>
        <mxCell id="5TCaiy2GnwxlKZLwlHfc-79" value="" style="endArrow=classic;html=1;strokeWidth=2;rounded=0;entryX=0.364;entryY=0.99;entryDx=0;entryDy=0;entryPerimeter=0;exitX=0.375;exitY=0.019;exitDx=0;exitDy=0;exitPerimeter=0;fillColor=#6a00ff;strokeColor=#3700CC;startArrow=none;startFill=0;endFill=1;" edge="1" parent="1" source="5TCaiy2GnwxlKZLwlHfc-2" target="5TCaiy2GnwxlKZLwlHfc-78">
          <mxGeometry width="50" height="50" relative="1" as="geometry">
            <mxPoint x="1210" y="-190" as="sourcePoint" />
            <mxPoint x="1260" y="-240" as="targetPoint" />
          </mxGeometry>
        </mxCell>
        <mxCell id="5TCaiy2GnwxlKZLwlHfc-80" value="" style="endArrow=classic;html=1;rounded=0;entryX=1.013;entryY=0.844;entryDx=0;entryDy=0;entryPerimeter=0;exitX=0.024;exitY=0.361;exitDx=0;exitDy=0;exitPerimeter=0;endFill=1;" edge="1" parent="1" source="5TCaiy2GnwxlKZLwlHfc-2" target="5TCaiy2GnwxlKZLwlHfc-77">
          <mxGeometry width="50" height="50" relative="1" as="geometry">
            <mxPoint x="1210" y="-190" as="sourcePoint" />
            <mxPoint x="1260" y="-240" as="targetPoint" />
          </mxGeometry>
        </mxCell>
        <mxCell id="5TCaiy2GnwxlKZLwlHfc-81" value="" style="endArrow=none;html=1;strokeWidth=2;rounded=0;entryX=0.003;entryY=0.58;entryDx=0;entryDy=0;entryPerimeter=0;exitX=0.993;exitY=0.36;exitDx=0;exitDy=0;exitPerimeter=0;dashed=1;fillColor=#a20025;strokeColor=#FF6666;" edge="1" parent="1" source="5TCaiy2GnwxlKZLwlHfc-2" target="5TCaiy2GnwxlKZLwlHfc-75">
          <mxGeometry width="50" height="50" relative="1" as="geometry">
            <mxPoint x="1700" y="40" as="sourcePoint" />
            <mxPoint x="1750" y="-10" as="targetPoint" />
          </mxGeometry>
        </mxCell>
        <mxCell id="5TCaiy2GnwxlKZLwlHfc-82" value="" style="endArrow=none;dashed=1;html=1;strokeWidth=2;rounded=0;entryX=0.351;entryY=0.014;entryDx=0;entryDy=0;entryPerimeter=0;exitX=0.389;exitY=1.009;exitDx=0;exitDy=0;exitPerimeter=0;strokeColor=#FF6666;" edge="1" parent="1" source="5TCaiy2GnwxlKZLwlHfc-2" target="5TCaiy2GnwxlKZLwlHfc-58">
          <mxGeometry width="50" height="50" relative="1" as="geometry">
            <mxPoint x="1700" y="40" as="sourcePoint" />
            <mxPoint x="1750" y="-10" as="targetPoint" />
          </mxGeometry>
        </mxCell>
        <mxCell id="5TCaiy2GnwxlKZLwlHfc-86" value="&lt;h1&gt;metadata&lt;/h1&gt;&lt;p&gt;Метаданные медицинского события,&amp;nbsp;oncopassport-kpi-metadata&lt;/p&gt;" style="text;html=1;strokeColor=#3700CC;fillColor=#6a00ff;spacing=5;spacingTop=-20;whiteSpace=wrap;overflow=hidden;rounded=0;fontColor=#ffffff;gradientColor=#60A917;" vertex="1" parent="1">
          <mxGeometry x="2170" y="240" width="140" height="120" as="geometry" />
        </mxCell>
        <mxCell id="5TCaiy2GnwxlKZLwlHfc-88" value="" style="endArrow=none;dashed=1;html=1;rounded=0;exitX=0.881;exitY=1.028;exitDx=0;exitDy=0;exitPerimeter=0;strokeColor=#FFFFFF;" edge="1" parent="1" source="5TCaiy2GnwxlKZLwlHfc-86" target="2c924340bb9dbf6c-3">
          <mxGeometry width="50" height="50" relative="1" as="geometry">
            <mxPoint x="2490" y="150" as="sourcePoint" />
            <mxPoint x="2540" y="100" as="targetPoint" />
          </mxGeometry>
        </mxCell>
        <mxCell id="5TCaiy2GnwxlKZLwlHfc-90" value="" style="endArrow=none;dashed=1;html=1;strokeWidth=2;rounded=0;entryX=-0.029;entryY=0.117;entryDx=0;entryDy=0;entryPerimeter=0;exitX=0.932;exitY=0.776;exitDx=0;exitDy=0;exitPerimeter=0;strokeColor=#FF6666;" edge="1" parent="1" source="5TCaiy2GnwxlKZLwlHfc-2" target="5TCaiy2GnwxlKZLwlHfc-86">
          <mxGeometry width="50" height="50" relative="1" as="geometry">
            <mxPoint x="1930" y="80" as="sourcePoint" />
            <mxPoint x="1980" y="30" as="targetPoint" />
          </mxGeometry>
        </mxCell>
        <mxCell id="5TCaiy2GnwxlKZLwlHfc-93" value="" style="endArrow=classic;html=1;strokeWidth=2;rounded=0;entryX=0.995;entryY=0.358;entryDx=0;entryDy=0;entryPerimeter=0;exitX=0.028;exitY=0.677;exitDx=0;exitDy=0;exitPerimeter=0;fillColor=#ffcd28;strokeColor=#d79b00;startArrow=none;startFill=0;endFill=1;gradientColor=#ffa500;" edge="1" parent="1" source="5TCaiy2GnwxlKZLwlHfc-54" target="5TCaiy2GnwxlKZLwlHfc-56">
          <mxGeometry width="50" height="50" relative="1" as="geometry">
            <mxPoint x="1420" y="590" as="sourcePoint" />
            <mxPoint x="1470" y="540" as="targetPoint" />
          </mxGeometry>
        </mxCell>
        <mxCell id="5TCaiy2GnwxlKZLwlHfc-94" value="&lt;h1&gt;KPIS&lt;/h1&gt;&lt;p&gt;какое то значение kpi например установленный диагноз&lt;/p&gt;" style="text;html=1;strokeColor=#001DBC;fillColor=#0050EF;spacing=5;spacingTop=-20;whiteSpace=wrap;overflow=hidden;rounded=0;fontColor=#ffffff;gradientColor=#60A917;" vertex="1" parent="1">
          <mxGeometry x="2540" y="50" width="180" height="130" as="geometry" />
        </mxCell>
        <mxCell id="5TCaiy2GnwxlKZLwlHfc-95" value="" style="endArrow=classic;html=1;rounded=0;strokeColor=#009900;exitX=0.362;exitY=0.023;exitDx=0;exitDy=0;exitPerimeter=0;entryX=0.869;entryY=1.008;entryDx=0;entryDy=0;entryPerimeter=0;" edge="1" parent="1" source="2c924340bb9dbf6c-3" target="5TCaiy2GnwxlKZLwlHfc-94">
          <mxGeometry width="50" height="50" relative="1" as="geometry">
            <mxPoint x="2390" y="320" as="sourcePoint" />
            <mxPoint x="2440" y="270" as="targetPoint" />
          </mxGeometry>
        </mxCell>
        <mxCell id="5TCaiy2GnwxlKZLwlHfc-96" value="" style="endArrow=none;dashed=1;html=1;strokeWidth=2;rounded=0;entryX=0.375;entryY=-0.019;entryDx=0;entryDy=0;entryPerimeter=0;exitX=0.555;exitY=1.007;exitDx=0;exitDy=0;exitPerimeter=0;strokeColor=#FF6666;" edge="1" parent="1" source="5TCaiy2GnwxlKZLwlHfc-22" target="5TCaiy2GnwxlKZLwlHfc-94">
          <mxGeometry width="50" height="50" relative="1" as="geometry">
            <mxPoint x="2419.9999999999995" y="-114.20000000000007" as="sourcePoint" />
            <mxPoint x="3285.4599999999996" y="179.99999999999997" as="targetPoint" />
          </mxGeometry>
        </mxCell>
        <mxCell id="5TCaiy2GnwxlKZLwlHfc-97" value="" style="endArrow=classic;html=1;rounded=0;strokeColor=#009900;entryX=1;entryY=1;entryDx=0;entryDy=0;" edge="1" parent="1" source="2c924340bb9dbf6c-3" target="5TCaiy2GnwxlKZLwlHfc-86">
          <mxGeometry width="50" height="50" relative="1" as="geometry">
            <mxPoint x="2625.34" y="536.48" as="sourcePoint" />
            <mxPoint x="2480" y="239.99999999999997" as="targetPoint" />
          </mxGeometry>
        </mxCell>
        <mxCell id="5TCaiy2GnwxlKZLwlHfc-99" value="&lt;h1&gt;type_id&lt;/h1&gt;&lt;div&gt;идентификатор типа события по справочнику&lt;br&gt;oncopassport-event-types&amp;nbsp;&lt;/div&gt;" style="text;html=1;strokeColor=#d79b00;fillColor=#ffcd28;spacing=5;spacingTop=-20;whiteSpace=wrap;overflow=hidden;rounded=0;gradientColor=#ffa500;" vertex="1" parent="1">
          <mxGeometry x="280" y="772" width="180" height="100" as="geometry" />
        </mxCell>
        <mxCell id="5TCaiy2GnwxlKZLwlHfc-100" value="" style="endArrow=classic;html=1;strokeWidth=2;rounded=0;entryX=1.009;entryY=0.681;entryDx=0;entryDy=0;entryPerimeter=0;exitX=0.028;exitY=0.358;exitDx=0;exitDy=0;exitPerimeter=0;fillColor=#ffcd28;strokeColor=#d79b00;startArrow=none;startFill=0;endFill=1;gradientColor=#ffa500;" edge="1" parent="1" source="5TCaiy2GnwxlKZLwlHfc-54" target="5TCaiy2GnwxlKZLwlHfc-99">
          <mxGeometry width="50" height="50" relative="1" as="geometry">
            <mxPoint x="1164.2600000000002" y="549.9999999999999" as="sourcePoint" />
            <mxPoint x="1019.9999999999999" y="611.6399999999998" as="targetPoint" />
          </mxGeometry>
        </mxCell>
        <mxCell id="5TCaiy2GnwxlKZLwlHfc-101" value="&lt;h1&gt;display_name&lt;/h1&gt;&lt;div&gt;название события&lt;/div&gt;" style="text;html=1;strokeColor=#d79b00;fillColor=#ffcd28;spacing=5;spacingTop=-20;whiteSpace=wrap;overflow=hidden;rounded=0;gradientColor=#ffa500;" vertex="1" parent="1">
          <mxGeometry x="280" y="660" width="180" height="70" as="geometry" />
        </mxCell>
        <mxCell id="5TCaiy2GnwxlKZLwlHfc-102" value="" style="endArrow=classic;html=1;strokeWidth=2;rounded=0;entryX=0.999;entryY=0.582;entryDx=0;entryDy=0;entryPerimeter=0;exitX=0.08;exitY=0.245;exitDx=0;exitDy=0;exitPerimeter=0;fillColor=#ffcd28;strokeColor=#d79b00;startArrow=none;startFill=0;endFill=1;gradientColor=#ffa500;" edge="1" parent="1" source="5TCaiy2GnwxlKZLwlHfc-54" target="5TCaiy2GnwxlKZLwlHfc-101">
          <mxGeometry width="50" height="50" relative="1" as="geometry">
            <mxPoint x="1182.58" y="521.2800000000001" as="sourcePoint" />
            <mxPoint x="1009.9999999999999" y="459.9999999999999" as="targetPoint" />
          </mxGeometry>
        </mxCell>
        <mxCell id="5TCaiy2GnwxlKZLwlHfc-103" value="&lt;h1&gt;stage_id&lt;/h1&gt;&lt;div&gt;идентификатор этапа лечения к которому относится событие. Например: подозрение/лечение/рецидив&lt;/div&gt;" style="text;html=1;strokeColor=#d79b00;fillColor=#ffcd28;spacing=5;spacingTop=-20;whiteSpace=wrap;overflow=hidden;rounded=0;gradientColor=#ffa500;" vertex="1" parent="1">
          <mxGeometry x="280" y="520" width="180" height="110" as="geometry" />
        </mxCell>
        <mxCell id="5TCaiy2GnwxlKZLwlHfc-104" value="" style="endArrow=classic;html=1;strokeWidth=2;rounded=0;entryX=1.008;entryY=0.848;entryDx=0;entryDy=0;entryPerimeter=0;exitX=0;exitY=0;exitDx=0;exitDy=0;fillColor=#ffcd28;strokeColor=#d79b00;startArrow=none;startFill=0;endFill=1;gradientColor=#ffa500;" edge="1" parent="1" source="5TCaiy2GnwxlKZLwlHfc-54" target="5TCaiy2GnwxlKZLwlHfc-103">
          <mxGeometry width="50" height="50" relative="1" as="geometry">
            <mxPoint x="1240" y="546.2099999999998" as="sourcePoint" />
            <mxPoint x="1057.82" y="369.9999999999998" as="targetPoint" />
          </mxGeometry>
        </mxCell>
        <mxCell id="5TCaiy2GnwxlKZLwlHfc-105" value="" style="endArrow=classic;html=1;strokeWidth=2;rounded=0;entryX=0.367;entryY=1.004;entryDx=0;entryDy=0;entryPerimeter=0;exitX=0.5;exitY=0;exitDx=0;exitDy=0;fillColor=#ffcd28;strokeColor=#d79b00;startArrow=none;startFill=0;endFill=1;gradientColor=#ffa500;" edge="1" parent="1" source="5TCaiy2GnwxlKZLwlHfc-54" target="5TCaiy2GnwxlKZLwlHfc-58">
          <mxGeometry width="50" height="50" relative="1" as="geometry">
            <mxPoint x="1251.8000000000002" y="602.31" as="sourcePoint" />
            <mxPoint x="1021.44" y="353.27999999999975" as="targetPoint" />
          </mxGeometry>
        </mxCell>
        <mxCell id="5TCaiy2GnwxlKZLwlHfc-106" value="&lt;h1&gt;start_date&lt;/h1&gt;&lt;div&gt;дата начала события&lt;/div&gt;" style="text;html=1;strokeColor=#d79b00;fillColor=#ffcd28;spacing=5;spacingTop=-20;whiteSpace=wrap;overflow=hidden;rounded=0;gradientColor=#ffa500;" vertex="1" parent="1">
          <mxGeometry x="280" y="1060" width="180" height="70" as="geometry" />
        </mxCell>
        <mxCell id="5TCaiy2GnwxlKZLwlHfc-107" value="" style="endArrow=classic;html=1;strokeWidth=2;rounded=0;entryX=1.023;entryY=0.405;entryDx=0;entryDy=0;entryPerimeter=0;exitX=0.185;exitY=0.886;exitDx=0;exitDy=0;exitPerimeter=0;fillColor=#ffcd28;strokeColor=#d79b00;startArrow=none;startFill=0;endFill=1;gradientColor=#ffa500;" edge="1" parent="1" source="5TCaiy2GnwxlKZLwlHfc-54" target="5TCaiy2GnwxlKZLwlHfc-106">
          <mxGeometry width="50" height="50" relative="1" as="geometry">
            <mxPoint x="1194.2000000000003" y="674.4700000000003" as="sourcePoint" />
            <mxPoint x="1019.1000000000004" y="685.8000000000002" as="targetPoint" />
          </mxGeometry>
        </mxCell>
        <mxCell id="5TCaiy2GnwxlKZLwlHfc-108" value="&lt;h1&gt;end_date&lt;/h1&gt;&lt;div&gt;дата окончания события&lt;/div&gt;" style="text;html=1;strokeColor=#d79b00;fillColor=#ffcd28;spacing=5;spacingTop=-20;whiteSpace=wrap;overflow=hidden;rounded=0;gradientColor=#ffa500;" vertex="1" parent="1">
          <mxGeometry x="280" y="1178" width="180" height="70" as="geometry" />
        </mxCell>
        <mxCell id="5TCaiy2GnwxlKZLwlHfc-109" value="" style="endArrow=classic;html=1;strokeWidth=2;rounded=0;entryX=1.009;entryY=0.357;entryDx=0;entryDy=0;entryPerimeter=0;exitX=0.367;exitY=0.985;exitDx=0;exitDy=0;exitPerimeter=0;fillColor=#ffcd28;strokeColor=#d79b00;startArrow=none;startFill=0;endFill=1;gradientColor=#ffa500;" edge="1" parent="1" source="5TCaiy2GnwxlKZLwlHfc-54" target="5TCaiy2GnwxlKZLwlHfc-108">
          <mxGeometry width="50" height="50" relative="1" as="geometry">
            <mxPoint x="1216.7000000000003" y="701.6399999999999" as="sourcePoint" />
            <mxPoint x="1024.1399999999999" y="808.3499999999999" as="targetPoint" />
          </mxGeometry>
        </mxCell>
        <mxCell id="5TCaiy2GnwxlKZLwlHfc-110" value="&lt;h1&gt;participants&lt;/h1&gt;&lt;div&gt;участники события, например лечащий врач&lt;/div&gt;" style="text;html=1;strokeColor=#d79b00;fillColor=#A20025;spacing=5;spacingTop=-20;whiteSpace=wrap;overflow=hidden;rounded=0;gradientColor=#ffa500;fontColor=#FFFFFF;" vertex="1" parent="1">
          <mxGeometry x="280" y="400" width="180" height="88" as="geometry" />
        </mxCell>
        <mxCell id="5TCaiy2GnwxlKZLwlHfc-111" value="" style="endArrow=classic;html=1;strokeWidth=2;rounded=0;entryX=1.009;entryY=0.858;entryDx=0;entryDy=0;entryPerimeter=0;exitX=0.305;exitY=0.036;exitDx=0;exitDy=0;exitPerimeter=0;fillColor=#ffcd28;strokeColor=#d79b00;startArrow=none;startFill=0;endFill=1;gradientColor=#ffa500;" edge="1" parent="1" source="5TCaiy2GnwxlKZLwlHfc-54" target="5TCaiy2GnwxlKZLwlHfc-110">
          <mxGeometry width="50" height="50" relative="1" as="geometry">
            <mxPoint x="1231.1" y="605.1700000000001" as="sourcePoint" />
            <mxPoint x="1021.44" y="605.2800000000002" as="targetPoint" />
          </mxGeometry>
        </mxCell>
        <mxCell id="5TCaiy2GnwxlKZLwlHfc-112" value="" style="endArrow=none;dashed=1;html=1;strokeWidth=2;rounded=0;entryX=0;entryY=0;entryDx=0;entryDy=0;strokeColor=#FF6666;" edge="1" parent="1" source="5TCaiy2GnwxlKZLwlHfc-47" target="5TCaiy2GnwxlKZLwlHfc-110">
          <mxGeometry width="50" height="50" relative="1" as="geometry">
            <mxPoint x="116.99999999999955" y="-50.00000000000031" as="sourcePoint" />
            <mxPoint x="982.4600000000005" y="244.19999999999996" as="targetPoint" />
          </mxGeometry>
        </mxCell>
        <mxCell id="5TCaiy2GnwxlKZLwlHfc-113" value="" style="endArrow=none;dashed=1;html=1;strokeWidth=2;rounded=0;entryX=0;entryY=0.5;entryDx=0;entryDy=0;exitX=1.038;exitY=0.635;exitDx=0;exitDy=0;exitPerimeter=0;strokeColor=#FF6666;" edge="1" parent="1" source="5TCaiy2GnwxlKZLwlHfc-47" target="5TCaiy2GnwxlKZLwlHfc-45">
          <mxGeometry width="50" height="50" relative="1" as="geometry">
            <mxPoint x="279.99999999999955" y="-770.0000000000003" as="sourcePoint" />
            <mxPoint x="1145.4600000000005" y="-475.80000000000007" as="targetPoint" />
          </mxGeometry>
        </mxCell>
        <mxCell id="5TCaiy2GnwxlKZLwlHfc-114" value="&lt;h1&gt;clinic_id&lt;/h1&gt;&lt;div&gt;идентификатор МО где происходило событие&lt;/div&gt;" style="text;html=1;strokeColor=#d79b00;fillColor=#ffcd28;spacing=5;spacingTop=-20;whiteSpace=wrap;overflow=hidden;rounded=0;gradientColor=#ffa500;" vertex="1" parent="1">
          <mxGeometry x="280" y="1300" width="180" height="90" as="geometry" />
        </mxCell>
        <mxCell id="5TCaiy2GnwxlKZLwlHfc-115" value="" style="endArrow=classic;html=1;strokeWidth=2;rounded=0;entryX=1;entryY=0.25;entryDx=0;entryDy=0;exitX=0.594;exitY=0.985;exitDx=0;exitDy=0;exitPerimeter=0;fillColor=#ffcd28;strokeColor=#d79b00;startArrow=none;startFill=0;endFill=1;gradientColor=#ffa500;" edge="1" parent="1" source="5TCaiy2GnwxlKZLwlHfc-54" target="5TCaiy2GnwxlKZLwlHfc-114">
          <mxGeometry width="50" height="50" relative="1" as="geometry">
            <mxPoint x="1273.4299999999998" y="822.68" as="sourcePoint" />
            <mxPoint x="1050" y="1291.3199999999997" as="targetPoint" />
          </mxGeometry>
        </mxCell>
        <mxCell id="5TCaiy2GnwxlKZLwlHfc-116" value="&lt;h1&gt;validation&lt;/h1&gt;&lt;div&gt;сообщение валидации события, например нарушение маршрутизации ????&lt;/div&gt;&lt;div&gt;&lt;br&gt;&lt;/div&gt;" style="text;html=1;strokeColor=#d79b00;fillColor=#FFCD28;spacing=5;spacingTop=-20;whiteSpace=wrap;overflow=hidden;rounded=0;gradientColor=#ffa500;" vertex="1" parent="1">
          <mxGeometry x="710" y="1270" width="180" height="120" as="geometry" />
        </mxCell>
        <mxCell id="5TCaiy2GnwxlKZLwlHfc-117" value="" style="endArrow=classic;html=1;strokeWidth=2;rounded=0;entryX=0.357;entryY=0.007;entryDx=0;entryDy=0;fillColor=#ffcd28;strokeColor=#d79b00;startArrow=none;startFill=0;endFill=1;gradientColor=#ffa500;exitX=0.783;exitY=0.932;exitDx=0;exitDy=0;exitPerimeter=0;entryPerimeter=0;" edge="1" parent="1" source="5TCaiy2GnwxlKZLwlHfc-54" target="5TCaiy2GnwxlKZLwlHfc-116">
          <mxGeometry width="50" height="50" relative="1" as="geometry">
            <mxPoint x="1284.0500000000002" y="713.4100000000003" as="sourcePoint" />
            <mxPoint x="1020" y="1292.5" as="targetPoint" />
          </mxGeometry>
        </mxCell>
        <mxCell id="5TCaiy2GnwxlKZLwlHfc-118" value="&lt;h1&gt;kpi&lt;/h1&gt;&lt;div&gt;значения KPI зафиксированные в этом событии&lt;/div&gt;&lt;div&gt;&lt;br&gt;&lt;/div&gt;" style="text;html=1;strokeColor=#d79b00;fillColor=#0050EF;spacing=5;spacingTop=-20;whiteSpace=wrap;overflow=hidden;rounded=0;gradientColor=#ffa500;fontColor=#FFFFFF;" vertex="1" parent="1">
          <mxGeometry x="1000" y="550" width="180" height="95" as="geometry" />
        </mxCell>
        <mxCell id="5TCaiy2GnwxlKZLwlHfc-119" value="" style="endArrow=classic;html=1;strokeWidth=2;rounded=0;entryX=0.003;entryY=0.64;entryDx=0;entryDy=0;fillColor=#ffcd28;strokeColor=#d79b00;startArrow=none;startFill=0;endFill=1;gradientColor=#ffa500;exitX=0.933;exitY=0.25;exitDx=0;exitDy=0;exitPerimeter=0;entryPerimeter=0;" edge="1" parent="1" source="5TCaiy2GnwxlKZLwlHfc-54" target="5TCaiy2GnwxlKZLwlHfc-118">
          <mxGeometry width="50" height="50" relative="1" as="geometry">
            <mxPoint x="1319.9999999999998" y="501.99999999999955" as="sourcePoint" />
            <mxPoint x="1489.1299999999994" y="533.6399999999999" as="targetPoint" />
          </mxGeometry>
        </mxCell>
        <mxCell id="5TCaiy2GnwxlKZLwlHfc-120" value="" style="endArrow=none;dashed=1;html=1;strokeWidth=2;rounded=0;entryX=1;entryY=0;entryDx=0;entryDy=0;strokeColor=#FF6666;exitX=0.25;exitY=1;exitDx=0;exitDy=0;" edge="1" parent="1" source="5TCaiy2GnwxlKZLwlHfc-22" target="5TCaiy2GnwxlKZLwlHfc-118">
          <mxGeometry width="50" height="50" relative="1" as="geometry">
            <mxPoint x="1909.9993191021995" y="100.00136538392303" as="sourcePoint" />
            <mxPoint x="2274.71" y="792.49" as="targetPoint" />
          </mxGeometry>
        </mxCell>
        <mxCell id="5TCaiy2GnwxlKZLwlHfc-121" value="&lt;h1&gt;events&lt;/h1&gt;&lt;div&gt;медицинские события кейса&lt;/div&gt;" style="text;html=1;strokeColor=#001DBC;fillColor=#FFCD28;spacing=5;spacingTop=-20;whiteSpace=wrap;overflow=hidden;rounded=0;fontColor=#ffffff;gradientColor=#60A917;" vertex="1" parent="1">
          <mxGeometry x="2100" y="480" width="180" height="80" as="geometry" />
        </mxCell>
        <mxCell id="5TCaiy2GnwxlKZLwlHfc-122" value="" style="endArrow=classic;html=1;rounded=0;strokeColor=#009900;exitX=0;exitY=0.5;exitDx=0;exitDy=0;entryX=1;entryY=0.5;entryDx=0;entryDy=0;" edge="1" parent="1" source="2c924340bb9dbf6c-3" target="5TCaiy2GnwxlKZLwlHfc-121">
          <mxGeometry width="50" height="50" relative="1" as="geometry">
            <mxPoint x="2677.0199999999995" y="795.4000000000001" as="sourcePoint" />
            <mxPoint x="2530" y="494.59999999999997" as="targetPoint" />
          </mxGeometry>
        </mxCell>
        <mxCell id="5TCaiy2GnwxlKZLwlHfc-123" value="" style="endArrow=none;dashed=1;html=1;strokeWidth=2;rounded=0;entryX=0;entryY=0.5;entryDx=0;entryDy=0;exitX=1;exitY=0.5;exitDx=0;exitDy=0;strokeColor=#FF6666;" edge="1" parent="1" source="5TCaiy2GnwxlKZLwlHfc-54" target="5TCaiy2GnwxlKZLwlHfc-121">
          <mxGeometry width="50" height="50" relative="1" as="geometry">
            <mxPoint x="1799.9999999999995" y="559.9999999999997" as="sourcePoint" />
            <mxPoint x="2125.4600000000005" y="704.1999999999999" as="targetPoint" />
          </mxGeometry>
        </mxCell>
        <mxCell id="5TCaiy2GnwxlKZLwlHfc-124" value="&lt;h1&gt;document_id&lt;/h1&gt;&lt;div&gt;id документа по которому произошло событие&lt;/div&gt;&lt;div&gt;&lt;br&gt;&lt;/div&gt;" style="text;html=1;strokeColor=#d79b00;fillColor=#FF00FF;spacing=5;spacingTop=-20;whiteSpace=wrap;overflow=hidden;rounded=0;gradientColor=#ffa500;" vertex="1" parent="1">
          <mxGeometry x="1085" y="822" width="180" height="88" as="geometry" />
        </mxCell>
        <mxCell id="5TCaiy2GnwxlKZLwlHfc-125" value="" style="endArrow=classic;html=1;strokeWidth=2;rounded=0;entryX=0;entryY=0.25;entryDx=0;entryDy=0;fillColor=#ffcd28;strokeColor=#d79b00;startArrow=none;startFill=0;endFill=1;gradientColor=#ffa500;exitX=0.877;exitY=0.831;exitDx=0;exitDy=0;exitPerimeter=0;" edge="1" parent="1" source="5TCaiy2GnwxlKZLwlHfc-54" target="5TCaiy2GnwxlKZLwlHfc-124">
          <mxGeometry width="50" height="50" relative="1" as="geometry">
            <mxPoint x="1280.0000000000002" y="870.36" as="sourcePoint" />
            <mxPoint x="1449.1300000000003" y="902.0000000000003" as="targetPoint" />
          </mxGeometry>
        </mxCell>
        <mxCell id="5TCaiy2GnwxlKZLwlHfc-126" value="documents медицинские документы" style="ellipse;whiteSpace=wrap;html=1;fillColor=#FF00FF;strokeColor=#d79b00;fontStyle=1;gradientColor=#800080;fontColor=#FFFFFF;" vertex="1" parent="1">
          <mxGeometry x="2550" y="1110" width="150" height="110" as="geometry" />
        </mxCell>
        <mxCell id="5TCaiy2GnwxlKZLwlHfc-127" value="&lt;h1&gt;id&lt;/h1&gt;&lt;p&gt;внутренний идентификатор документа&lt;/p&gt;" style="text;html=1;strokeColor=none;fillColor=#FF00FF;spacing=5;spacingTop=-20;whiteSpace=wrap;overflow=hidden;rounded=0;gradientColor=#800080;fontColor=#FFFFFF;" vertex="1" parent="1">
          <mxGeometry x="2130" y="960" width="190" height="90" as="geometry" />
        </mxCell>
        <mxCell id="5TCaiy2GnwxlKZLwlHfc-128" value="" style="endArrow=none;dashed=1;html=1;strokeWidth=2;rounded=0;entryX=-0.026;entryY=0.389;entryDx=0;entryDy=0;exitX=1;exitY=0.5;exitDx=0;exitDy=0;strokeColor=#FF6666;entryPerimeter=0;" edge="1" parent="1" source="5TCaiy2GnwxlKZLwlHfc-124" target="5TCaiy2GnwxlKZLwlHfc-127">
          <mxGeometry width="50" height="50" relative="1" as="geometry">
            <mxPoint x="1750" y="1165" as="sourcePoint" />
            <mxPoint x="2420" y="1080" as="targetPoint" />
          </mxGeometry>
        </mxCell>
        <mxCell id="5TCaiy2GnwxlKZLwlHfc-129" value="" style="endArrow=classic;html=1;rounded=0;strokeColor=#FF00FF;entryX=1.016;entryY=1.015;entryDx=0;entryDy=0;entryPerimeter=0;" edge="1" parent="1" source="5TCaiy2GnwxlKZLwlHfc-126" target="5TCaiy2GnwxlKZLwlHfc-127">
          <mxGeometry width="50" height="50" relative="1" as="geometry">
            <mxPoint x="2690" y="1090" as="sourcePoint" />
            <mxPoint x="2230" y="1170" as="targetPoint" />
          </mxGeometry>
        </mxCell>
        <mxCell id="5TCaiy2GnwxlKZLwlHfc-130" value="&lt;h1&gt;metadata&lt;/h1&gt;&lt;p&gt;Метаданные медицинского события,&amp;nbsp;oncopassport-kpi-metadata&lt;/p&gt;" style="text;html=1;strokeColor=#3700CC;fillColor=#6a00ff;spacing=5;spacingTop=-20;whiteSpace=wrap;overflow=hidden;rounded=0;fontColor=#ffffff;gradientColor=#FF00FF;" vertex="1" parent="1">
          <mxGeometry x="2130" y="725" width="140" height="120" as="geometry" />
        </mxCell>
        <mxCell id="5TCaiy2GnwxlKZLwlHfc-134" value="" style="endArrow=classic;html=1;rounded=0;strokeColor=#FF00FF;entryX=0.893;entryY=1.042;entryDx=0;entryDy=0;entryPerimeter=0;exitX=0.74;exitY=0.052;exitDx=0;exitDy=0;exitPerimeter=0;" edge="1" parent="1" source="5TCaiy2GnwxlKZLwlHfc-126" target="5TCaiy2GnwxlKZLwlHfc-130">
          <mxGeometry width="50" height="50" relative="1" as="geometry">
            <mxPoint x="2568.249733947702" y="1059.9225519803526" as="sourcePoint" />
            <mxPoint x="2333.04" y="971.3499999999999" as="targetPoint" />
          </mxGeometry>
        </mxCell>
        <mxCell id="5TCaiy2GnwxlKZLwlHfc-135" value="" style="endArrow=none;dashed=1;html=1;strokeWidth=2;rounded=0;entryX=0.5;entryY=1;entryDx=0;entryDy=0;strokeColor=#FF6666;exitX=0;exitY=0;exitDx=0;exitDy=0;" edge="1" parent="1" source="5TCaiy2GnwxlKZLwlHfc-130" target="5TCaiy2GnwxlKZLwlHfc-2">
          <mxGeometry width="50" height="50" relative="1" as="geometry">
            <mxPoint x="2387.5" y="-280" as="sourcePoint" />
            <mxPoint x="1740" y="435" as="targetPoint" />
          </mxGeometry>
        </mxCell>
        <mxCell id="5TCaiy2GnwxlKZLwlHfc-137" value="&lt;h1&gt;external_id&lt;/h1&gt;&lt;p&gt;идентификатор документа во внешней системе, например в каком то справочнике&lt;/p&gt;" style="text;html=1;strokeColor=none;fillColor=#FF00FF;spacing=5;spacingTop=-20;whiteSpace=wrap;overflow=hidden;rounded=0;gradientColor=#800080;fontColor=#FFFFFF;" vertex="1" parent="1">
          <mxGeometry x="2130" y="1070" width="190" height="108" as="geometry" />
        </mxCell>
        <mxCell id="5TCaiy2GnwxlKZLwlHfc-138" value="" style="endArrow=classic;html=1;rounded=0;strokeColor=#FF00FF;entryX=1.02;entryY=0.58;entryDx=0;entryDy=0;entryPerimeter=0;exitX=-0.004;exitY=0.566;exitDx=0;exitDy=0;exitPerimeter=0;" edge="1" parent="1" source="5TCaiy2GnwxlKZLwlHfc-126" target="5TCaiy2GnwxlKZLwlHfc-137">
          <mxGeometry width="50" height="50" relative="1" as="geometry">
            <mxPoint x="2568.2347934240106" y="1149.9439499348691" as="sourcePoint" />
            <mxPoint x="2333.0400000000004" y="1061.35" as="targetPoint" />
          </mxGeometry>
        </mxCell>
        <mxCell id="5TCaiy2GnwxlKZLwlHfc-139" value="&lt;h1&gt;type_id&lt;/h1&gt;&lt;p&gt;тип документа&amp;nbsp;&lt;/p&gt;&lt;p&gt;oncopassport-document-types&lt;br&gt;&lt;/p&gt;" style="text;html=1;strokeColor=none;fillColor=#FF00FF;spacing=5;spacingTop=-20;whiteSpace=wrap;overflow=hidden;rounded=0;gradientColor=#800080;fontColor=#FFFFFF;" vertex="1" parent="1">
          <mxGeometry x="2130" y="1200" width="190" height="100" as="geometry" />
        </mxCell>
        <mxCell id="5TCaiy2GnwxlKZLwlHfc-140" value="" style="endArrow=classic;html=1;rounded=0;strokeColor=#FF00FF;entryX=1.004;entryY=0.15;entryDx=0;entryDy=0;entryPerimeter=0;exitX=0.044;exitY=0.747;exitDx=0;exitDy=0;exitPerimeter=0;" edge="1" parent="1" source="5TCaiy2GnwxlKZLwlHfc-126" target="5TCaiy2GnwxlKZLwlHfc-139">
          <mxGeometry width="50" height="50" relative="1" as="geometry">
            <mxPoint x="2575.6" y="1275.0000000000002" as="sourcePoint" />
            <mxPoint x="2350.0000000000005" y="1287.3800000000003" as="targetPoint" />
          </mxGeometry>
        </mxCell>
        <mxCell id="5TCaiy2GnwxlKZLwlHfc-141" value="&lt;h1&gt;display_name&lt;/h1&gt;&lt;p&gt;наименование документа&lt;/p&gt;" style="text;html=1;strokeColor=none;fillColor=#FF00FF;spacing=5;spacingTop=-20;whiteSpace=wrap;overflow=hidden;rounded=0;gradientColor=#800080;fontColor=#FFFFFF;" vertex="1" parent="1">
          <mxGeometry x="2210" y="1470" width="190" height="80" as="geometry" />
        </mxCell>
        <mxCell id="5TCaiy2GnwxlKZLwlHfc-142" value="" style="endArrow=classic;html=1;rounded=0;strokeColor=#FF00FF;entryX=1.009;entryY=0.356;entryDx=0;entryDy=0;entryPerimeter=0;exitX=0.174;exitY=0.906;exitDx=0;exitDy=0;exitPerimeter=0;" edge="1" parent="1" source="5TCaiy2GnwxlKZLwlHfc-126" target="5TCaiy2GnwxlKZLwlHfc-141">
          <mxGeometry width="50" height="50" relative="1" as="geometry">
            <mxPoint x="2575" y="1213.2799999999997" as="sourcePoint" />
            <mxPoint x="2330.7599999999998" y="1285" as="targetPoint" />
          </mxGeometry>
        </mxCell>
        <mxCell id="5TCaiy2GnwxlKZLwlHfc-143" value="&lt;h1&gt;binaries&lt;/h1&gt;&lt;p&gt;двоичные вложения к документу например?&lt;/p&gt;" style="text;html=1;strokeColor=none;fillColor=#FF00FF;spacing=5;spacingTop=-20;whiteSpace=wrap;overflow=hidden;rounded=0;gradientColor=#800080;fontColor=#FFFFFF;" vertex="1" parent="1">
          <mxGeometry x="2310" y="1580" width="190" height="80" as="geometry" />
        </mxCell>
        <mxCell id="5TCaiy2GnwxlKZLwlHfc-144" value="" style="endArrow=classic;html=1;rounded=0;strokeColor=#FF00FF;entryX=1.009;entryY=0.094;entryDx=0;entryDy=0;entryPerimeter=0;exitX=0.311;exitY=0.974;exitDx=0;exitDy=0;exitPerimeter=0;" edge="1" parent="1" source="5TCaiy2GnwxlKZLwlHfc-126" target="5TCaiy2GnwxlKZLwlHfc-143">
          <mxGeometry width="50" height="50" relative="1" as="geometry">
            <mxPoint x="2635.2400000000002" y="1299.3200000000002" as="sourcePoint" />
            <mxPoint x="2360" y="1500" as="targetPoint" />
          </mxGeometry>
        </mxCell>
        <mxCell id="5TCaiy2GnwxlKZLwlHfc-145" value="&lt;h1&gt;date&lt;/h1&gt;&lt;p&gt;дaта выпуска документа&lt;/p&gt;" style="text;html=1;strokeColor=none;fillColor=#FF00FF;spacing=5;spacingTop=-20;whiteSpace=wrap;overflow=hidden;rounded=0;gradientColor=#800080;fontColor=#FFFFFF;" vertex="1" parent="1">
          <mxGeometry x="2540" y="1580" width="190" height="80" as="geometry" />
        </mxCell>
        <mxCell id="5TCaiy2GnwxlKZLwlHfc-146" value="" style="endArrow=classic;html=1;rounded=0;strokeColor=#FF00FF;entryX=1.009;entryY=0.385;entryDx=0;entryDy=0;entryPerimeter=0;exitX=0.5;exitY=1;exitDx=0;exitDy=0;" edge="1" parent="1" source="5TCaiy2GnwxlKZLwlHfc-126" target="5TCaiy2GnwxlKZLwlHfc-145">
          <mxGeometry width="50" height="50" relative="1" as="geometry">
            <mxPoint x="2670.0000000000005" y="1315.0100000000002" as="sourcePoint" />
            <mxPoint x="2377.51" y="1520" as="targetPoint" />
          </mxGeometry>
        </mxCell>
        <mxCell id="5TCaiy2GnwxlKZLwlHfc-147" value="&lt;h1&gt;participants&lt;/h1&gt;&lt;div&gt;участники события, например лечащий врач&lt;/div&gt;" style="text;html=1;strokeColor=#d79b00;fillColor=#A20025;spacing=5;spacingTop=-20;whiteSpace=wrap;overflow=hidden;rounded=0;fontColor=#FFFFFF;gradientColor=#FF00FF;" vertex="1" parent="1">
          <mxGeometry x="1900" y="757" width="180" height="88" as="geometry" />
        </mxCell>
        <mxCell id="5TCaiy2GnwxlKZLwlHfc-149" value="" style="endArrow=none;dashed=1;html=1;strokeWidth=2;rounded=0;entryX=0.5;entryY=1;entryDx=0;entryDy=0;strokeColor=#FF6666;exitX=-0.023;exitY=0.337;exitDx=0;exitDy=0;exitPerimeter=0;" edge="1" parent="1" source="5TCaiy2GnwxlKZLwlHfc-147" target="5TCaiy2GnwxlKZLwlHfc-47">
          <mxGeometry width="50" height="50" relative="1" as="geometry">
            <mxPoint x="2140" y="802" as="sourcePoint" />
            <mxPoint x="800" y="-100" as="targetPoint" />
          </mxGeometry>
        </mxCell>
        <mxCell id="5TCaiy2GnwxlKZLwlHfc-150" value="" style="endArrow=classic;html=1;rounded=0;strokeColor=#FF00FF;entryX=0.689;entryY=1.011;entryDx=0;entryDy=0;entryPerimeter=0;exitX=0.307;exitY=0.027;exitDx=0;exitDy=0;exitPerimeter=0;" edge="1" parent="1" source="5TCaiy2GnwxlKZLwlHfc-126" target="5TCaiy2GnwxlKZLwlHfc-147">
          <mxGeometry width="50" height="50" relative="1" as="geometry">
            <mxPoint x="2470" y="1088.6799999999998" as="sourcePoint" />
            <mxPoint x="2464.02" y="850" as="targetPoint" />
          </mxGeometry>
        </mxCell>
        <mxCell id="5TCaiy2GnwxlKZLwlHfc-151" value="&lt;h1&gt;clinic_id&lt;/h1&gt;&lt;p&gt;идентификатор клиники, выпустившей документ&lt;/p&gt;" style="text;html=1;strokeColor=none;fillColor=#FF00FF;spacing=5;spacingTop=-20;whiteSpace=wrap;overflow=hidden;rounded=0;gradientColor=#800080;fontColor=#FFFFFF;" vertex="1" parent="1">
          <mxGeometry x="2750" y="1580" width="190" height="80" as="geometry" />
        </mxCell>
        <mxCell id="5TCaiy2GnwxlKZLwlHfc-152" value="" style="endArrow=classic;html=1;rounded=0;strokeColor=#FF00FF;entryX=0.305;entryY=0;entryDx=0;entryDy=0;entryPerimeter=0;exitX=0.567;exitY=1.027;exitDx=0;exitDy=0;exitPerimeter=0;" edge="1" parent="1" source="5TCaiy2GnwxlKZLwlHfc-126" target="5TCaiy2GnwxlKZLwlHfc-151">
          <mxGeometry width="50" height="50" relative="1" as="geometry">
            <mxPoint x="2770" y="1269.2" as="sourcePoint" />
            <mxPoint x="2466.71" y="1600.0000000000002" as="targetPoint" />
          </mxGeometry>
        </mxCell>
        <mxCell id="5TCaiy2GnwxlKZLwlHfc-153" value="&lt;h1&gt;added_at&lt;/h1&gt;&lt;p&gt;дата-время добавления документа в клинические данные???&lt;/p&gt;" style="text;html=1;strokeColor=none;fillColor=#FF00FF;spacing=5;spacingTop=-20;whiteSpace=wrap;overflow=hidden;rounded=0;gradientColor=#800080;fontColor=#FFFFFF;" vertex="1" parent="1">
          <mxGeometry x="2910" y="1480" width="190" height="100" as="geometry" />
        </mxCell>
        <mxCell id="5TCaiy2GnwxlKZLwlHfc-154" value="" style="endArrow=classic;html=1;rounded=0;strokeColor=#FF00FF;entryX=0.5;entryY=0;entryDx=0;entryDy=0;exitX=0.572;exitY=1.015;exitDx=0;exitDy=0;exitPerimeter=0;" edge="1" parent="1" source="5TCaiy2GnwxlKZLwlHfc-126" target="5TCaiy2GnwxlKZLwlHfc-153">
          <mxGeometry width="50" height="50" relative="1" as="geometry">
            <mxPoint x="2645.0500000000006" y="1232.9699999999998" as="sourcePoint" />
            <mxPoint x="2407.9500000000003" y="1610" as="targetPoint" />
          </mxGeometry>
        </mxCell>
        <mxCell id="5TCaiy2GnwxlKZLwlHfc-155" value="&lt;h1&gt;added_by_id&lt;/h1&gt;&lt;p&gt;id пользователя, добавившего к документу клинические данные&lt;/p&gt;" style="text;html=1;strokeColor=none;fillColor=#FF00FF;spacing=5;spacingTop=-20;whiteSpace=wrap;overflow=hidden;rounded=0;gradientColor=#800080;fontColor=#FFFFFF;" vertex="1" parent="1">
          <mxGeometry x="2960" y="1350" width="190" height="90" as="geometry" />
        </mxCell>
        <mxCell id="5TCaiy2GnwxlKZLwlHfc-156" value="" style="endArrow=classic;html=1;rounded=0;strokeColor=#FF00FF;entryX=0.355;entryY=-0.019;entryDx=0;entryDy=0;exitX=0.567;exitY=1.03;exitDx=0;exitDy=0;exitPerimeter=0;entryPerimeter=0;" edge="1" parent="1" source="5TCaiy2GnwxlKZLwlHfc-126" target="5TCaiy2GnwxlKZLwlHfc-155">
          <mxGeometry width="50" height="50" relative="1" as="geometry">
            <mxPoint x="2645.8" y="1231.65" as="sourcePoint" />
            <mxPoint x="2655" y="1610" as="targetPoint" />
          </mxGeometry>
        </mxCell>
        <mxCell id="5TCaiy2GnwxlKZLwlHfc-158" value="&lt;h1&gt;validation&lt;/h1&gt;&lt;p&gt;сообщение валидации документа, отсутствие цифровой подписи и тп&lt;/p&gt;" style="text;html=1;strokeColor=none;fillColor=#FF00FF;spacing=5;spacingTop=-20;whiteSpace=wrap;overflow=hidden;rounded=0;gradientColor=#800080;fontColor=#FFFFFF;" vertex="1" parent="1">
          <mxGeometry x="2920" y="1190" width="190" height="100" as="geometry" />
        </mxCell>
        <mxCell id="5TCaiy2GnwxlKZLwlHfc-159" value="" style="endArrow=classic;html=1;rounded=0;strokeColor=#FF00FF;entryX=0;entryY=0;entryDx=0;entryDy=0;exitX=0.707;exitY=0.964;exitDx=0;exitDy=0;exitPerimeter=0;" edge="1" parent="1" source="5TCaiy2GnwxlKZLwlHfc-126" target="5TCaiy2GnwxlKZLwlHfc-158">
          <mxGeometry width="50" height="50" relative="1" as="geometry">
            <mxPoint x="2645.05" y="1233.3000000000002" as="sourcePoint" />
            <mxPoint x="2847.45" y="1608.29" as="targetPoint" />
          </mxGeometry>
        </mxCell>
        <mxCell id="5TCaiy2GnwxlKZLwlHfc-160" value="&lt;h1&gt;events&lt;/h1&gt;&lt;p&gt;события описанные эти документом&lt;/p&gt;" style="text;html=1;strokeColor=none;fillColor=#FFCD28;spacing=5;spacingTop=-20;whiteSpace=wrap;overflow=hidden;rounded=0;gradientColor=#800080;fontColor=#FFFFFF;" vertex="1" parent="1">
          <mxGeometry x="1880" y="1380" width="190" height="100" as="geometry" />
        </mxCell>
        <mxCell id="5TCaiy2GnwxlKZLwlHfc-161" value="" style="endArrow=classic;html=1;rounded=0;strokeColor=#FF00FF;entryX=0.998;entryY=0.443;entryDx=0;entryDy=0;entryPerimeter=0;exitX=0.078;exitY=0.817;exitDx=0;exitDy=0;exitPerimeter=0;" edge="1" parent="1" source="5TCaiy2GnwxlKZLwlHfc-126" target="5TCaiy2GnwxlKZLwlHfc-160">
          <mxGeometry width="50" height="50" relative="1" as="geometry">
            <mxPoint x="2494.3900000000003" y="1209.9999999999998" as="sourcePoint" />
            <mxPoint x="2320" y="1498.82" as="targetPoint" />
          </mxGeometry>
        </mxCell>
        <mxCell id="5TCaiy2GnwxlKZLwlHfc-162" value="" style="endArrow=none;dashed=1;html=1;strokeWidth=2;rounded=0;entryX=0;entryY=0.5;entryDx=0;entryDy=0;exitX=0.978;exitY=0.724;exitDx=0;exitDy=0;strokeColor=#FF6666;exitPerimeter=0;" edge="1" parent="1" source="5TCaiy2GnwxlKZLwlHfc-54" target="5TCaiy2GnwxlKZLwlHfc-160">
          <mxGeometry width="50" height="50" relative="1" as="geometry">
            <mxPoint x="1060" y="1350.0000000000005" as="sourcePoint" />
            <mxPoint x="1955.0600000000004" y="1351.0100000000002" as="targetPoint" />
          </mxGeometry>
        </mxCell>
        <mxCell id="5TCaiy2GnwxlKZLwlHfc-165" value="&lt;h1&gt;&lt;span&gt;documents&amp;nbsp; &lt;span style=&quot;font-size: 12px ; font-weight: 400&quot;&gt;&amp;nbsp; &amp;nbsp; &amp;nbsp; &amp;nbsp; &amp;nbsp;документы относящиеся к кейсу&lt;/span&gt;&lt;/span&gt;&lt;br&gt;&lt;/h1&gt;" style="text;html=1;strokeColor=#001DBC;fillColor=#FF00FF;spacing=5;spacingTop=-20;whiteSpace=wrap;overflow=hidden;rounded=0;fontColor=#ffffff;gradientColor=#60A917;" vertex="1" parent="1">
          <mxGeometry x="2530" y="645" width="180" height="100" as="geometry" />
        </mxCell>
        <mxCell id="5TCaiy2GnwxlKZLwlHfc-166" value="" style="endArrow=classic;html=1;rounded=0;strokeColor=#009900;exitX=0.274;exitY=0.999;exitDx=0;exitDy=0;entryX=0.389;entryY=0.019;entryDx=0;entryDy=0;exitPerimeter=0;entryPerimeter=0;" edge="1" parent="1" source="2c924340bb9dbf6c-3" target="5TCaiy2GnwxlKZLwlHfc-165">
          <mxGeometry width="50" height="50" relative="1" as="geometry">
            <mxPoint x="2650" y="490" as="sourcePoint" />
            <mxPoint x="2290" y="530" as="targetPoint" />
          </mxGeometry>
        </mxCell>
        <mxCell id="5TCaiy2GnwxlKZLwlHfc-168" value="" style="endArrow=none;dashed=1;html=1;strokeWidth=2;rounded=0;entryX=0.773;entryY=0.091;entryDx=0;entryDy=0;entryPerimeter=0;exitX=0.689;exitY=1.03;exitDx=0;exitDy=0;exitPerimeter=0;strokeColor=#FF6666;" edge="1" parent="1" source="5TCaiy2GnwxlKZLwlHfc-165" target="5TCaiy2GnwxlKZLwlHfc-126">
          <mxGeometry width="50" height="50" relative="1" as="geometry">
            <mxPoint x="2610" y="745" as="sourcePoint" />
            <mxPoint x="2814.25" y="1082.1100000000001" as="targetPoint" />
          </mxGeometry>
        </mxCell>
        <mxCell id="5TCaiy2GnwxlKZLwlHfc-169" value="&lt;span&gt;encounters, случаи относящиеся к кейсу&lt;br&gt;&lt;/span&gt;" style="ellipse;whiteSpace=wrap;html=1;rounded=1;shadow=1;comic=0;labelBackgroundColor=none;strokeWidth=2;fontFamily=Verdana;fontSize=12;align=center;fillColor=#fa6800;strokeColor=#C73500;fontColor=#000000;gradientColor=#ffffff;" vertex="1" parent="1">
          <mxGeometry x="4040" y="404" width="120" height="80" as="geometry" />
        </mxCell>
        <mxCell id="5TCaiy2GnwxlKZLwlHfc-170" value="&lt;h1&gt;id&lt;/h1&gt;&lt;p&gt;внутренний идентификатор случая&lt;/p&gt;" style="text;html=1;strokeColor=#C73500;fillColor=#fa6800;spacing=5;spacingTop=-20;whiteSpace=wrap;overflow=hidden;rounded=0;fontColor=#000000;gradientColor=#ffffff;" vertex="1" parent="1">
          <mxGeometry x="3840" y="180" width="190" height="90" as="geometry" />
        </mxCell>
        <mxCell id="5TCaiy2GnwxlKZLwlHfc-171" value="" style="endArrow=classic;html=1;rounded=0;strokeColor=#C73500;exitX=0;exitY=0.338;exitDx=0;exitDy=0;exitPerimeter=0;entryX=1;entryY=1;entryDx=0;entryDy=0;fillColor=#fa6800;" edge="1" parent="1" source="5TCaiy2GnwxlKZLwlHfc-169" target="5TCaiy2GnwxlKZLwlHfc-170">
          <mxGeometry width="50" height="50" relative="1" as="geometry">
            <mxPoint x="3929.9999999999995" y="540.8000000000002" as="sourcePoint" />
            <mxPoint x="3942.98" y="279.99999999999994" as="targetPoint" />
          </mxGeometry>
        </mxCell>
        <mxCell id="5TCaiy2GnwxlKZLwlHfc-172" value="&lt;h1&gt;external_id&lt;/h1&gt;&lt;p&gt;идентификатор случая во внешней системе, например справочнике&lt;/p&gt;" style="text;html=1;strokeColor=#C73500;fillColor=#fa6800;spacing=5;spacingTop=-20;whiteSpace=wrap;overflow=hidden;rounded=0;fontColor=#000000;gradientColor=#ffffff;" vertex="1" parent="1">
          <mxGeometry x="4110" y="120" width="190" height="100" as="geometry" />
        </mxCell>
        <mxCell id="5TCaiy2GnwxlKZLwlHfc-173" value="" style="endArrow=classic;html=1;rounded=0;strokeColor=#C73500;exitX=0.315;exitY=0.016;exitDx=0;exitDy=0;exitPerimeter=0;entryX=0.333;entryY=1.019;entryDx=0;entryDy=0;fillColor=#fa6800;entryPerimeter=0;" edge="1" parent="1" source="5TCaiy2GnwxlKZLwlHfc-169" target="5TCaiy2GnwxlKZLwlHfc-172">
          <mxGeometry width="50" height="50" relative="1" as="geometry">
            <mxPoint x="4120" y="341.0400000000002" as="sourcePoint" />
            <mxPoint x="3900" y="240" as="targetPoint" />
          </mxGeometry>
        </mxCell>
        <mxCell id="5TCaiy2GnwxlKZLwlHfc-174" value="&lt;h1&gt;display_name&lt;/h1&gt;&lt;p&gt;название случая&lt;/p&gt;" style="text;html=1;strokeColor=#C73500;fillColor=#fa6800;spacing=5;spacingTop=-20;whiteSpace=wrap;overflow=hidden;rounded=0;fontColor=#000000;gradientColor=#ffffff;" vertex="1" parent="1">
          <mxGeometry x="4280" y="250" width="190" height="70" as="geometry" />
        </mxCell>
        <mxCell id="5TCaiy2GnwxlKZLwlHfc-175" value="" style="endArrow=classic;html=1;rounded=0;strokeColor=#C73500;exitX=0.727;exitY=0.034;exitDx=0;exitDy=0;exitPerimeter=0;entryX=0.438;entryY=1.037;entryDx=0;entryDy=0;fillColor=#fa6800;entryPerimeter=0;" edge="1" parent="1" source="5TCaiy2GnwxlKZLwlHfc-169" target="5TCaiy2GnwxlKZLwlHfc-174">
          <mxGeometry width="50" height="50" relative="1" as="geometry">
            <mxPoint x="4334.53" y="425.3800000000002" as="sourcePoint" />
            <mxPoint x="4190" y="222.00000000000009" as="targetPoint" />
          </mxGeometry>
        </mxCell>
        <mxCell id="5TCaiy2GnwxlKZLwlHfc-176" value="&lt;h1&gt;сlinic_id&lt;/h1&gt;&lt;p&gt;идентификатор МО, где был зафиксирован случай&lt;/p&gt;" style="text;html=1;strokeColor=#C73500;fillColor=#fa6800;spacing=5;spacingTop=-20;whiteSpace=wrap;overflow=hidden;rounded=0;fontColor=#000000;gradientColor=#ffffff;" vertex="1" parent="1">
          <mxGeometry x="4300" y="408" width="190" height="80" as="geometry" />
        </mxCell>
        <mxCell id="5TCaiy2GnwxlKZLwlHfc-178" value="" style="endArrow=classic;html=1;rounded=0;strokeColor=#C73500;exitX=0.955;exitY=0.258;exitDx=0;exitDy=0;exitPerimeter=0;entryX=-0.014;entryY=0.993;entryDx=0;entryDy=0;fillColor=#fa6800;entryPerimeter=0;" edge="1" parent="1" source="5TCaiy2GnwxlKZLwlHfc-169" target="5TCaiy2GnwxlKZLwlHfc-176">
          <mxGeometry width="50" height="50" relative="1" as="geometry">
            <mxPoint x="4137.24" y="416.72" as="sourcePoint" />
            <mxPoint x="4213.219999999999" y="192.58999999999992" as="targetPoint" />
          </mxGeometry>
        </mxCell>
        <mxCell id="5TCaiy2GnwxlKZLwlHfc-179" value="&lt;h1&gt;start_date&lt;/h1&gt;&lt;p&gt;дата начала случая&lt;/p&gt;" style="text;html=1;strokeColor=#C73500;fillColor=#fa6800;spacing=5;spacingTop=-20;whiteSpace=wrap;overflow=hidden;rounded=0;fontColor=#000000;gradientColor=#ffffff;" vertex="1" parent="1">
          <mxGeometry x="4310" y="550" width="190" height="70" as="geometry" />
        </mxCell>
        <mxCell id="5TCaiy2GnwxlKZLwlHfc-180" value="" style="endArrow=classic;html=1;rounded=0;strokeColor=#C73500;exitX=0.997;exitY=0.46;exitDx=0;exitDy=0;exitPerimeter=0;entryX=-0.014;entryY=0.488;entryDx=0;entryDy=0;fillColor=#fa6800;entryPerimeter=0;" edge="1" parent="1" source="5TCaiy2GnwxlKZLwlHfc-169" target="5TCaiy2GnwxlKZLwlHfc-179">
          <mxGeometry width="50" height="50" relative="1" as="geometry">
            <mxPoint x="4164.6" y="434.6400000000001" as="sourcePoint" />
            <mxPoint x="4287.34" y="329.44000000000005" as="targetPoint" />
          </mxGeometry>
        </mxCell>
        <mxCell id="5TCaiy2GnwxlKZLwlHfc-181" value="&lt;h1&gt;end_date&lt;/h1&gt;&lt;p&gt;дата окончания случая&lt;/p&gt;" style="text;html=1;strokeColor=#C73500;fillColor=#FA6800;spacing=5;spacingTop=-20;whiteSpace=wrap;overflow=hidden;rounded=0;fontColor=#000000;gradientColor=#ffffff;" vertex="1" parent="1">
          <mxGeometry x="4250" y="680" width="190" height="70" as="geometry" />
        </mxCell>
        <mxCell id="5TCaiy2GnwxlKZLwlHfc-182" value="" style="endArrow=classic;html=1;rounded=0;strokeColor=#C73500;exitX=0.944;exitY=0.794;exitDx=0;exitDy=0;exitPerimeter=0;entryX=0;entryY=0.5;entryDx=0;entryDy=0;fillColor=#fa6800;" edge="1" parent="1" source="5TCaiy2GnwxlKZLwlHfc-169" target="5TCaiy2GnwxlKZLwlHfc-181">
          <mxGeometry width="50" height="50" relative="1" as="geometry">
            <mxPoint x="4169.64" y="450.7999999999997" as="sourcePoint" />
            <mxPoint x="4307.34" y="424.1600000000003" as="targetPoint" />
          </mxGeometry>
        </mxCell>
        <mxCell id="5TCaiy2GnwxlKZLwlHfc-183" value="&lt;h1&gt;documents&lt;/h1&gt;&lt;p&gt;документы, выпущенные в рамках этого случая&lt;/p&gt;" style="text;html=1;strokeColor=#C73500;fillColor=#FF00FF;spacing=5;spacingTop=-20;whiteSpace=wrap;overflow=hidden;rounded=0;fontColor=#000000;gradientColor=#FA6800;" vertex="1" parent="1">
          <mxGeometry x="4000" y="784" width="190" height="88" as="geometry" />
        </mxCell>
        <mxCell id="5TCaiy2GnwxlKZLwlHfc-184" value="" style="endArrow=classic;html=1;rounded=0;strokeColor=#C73500;exitX=0.277;exitY=1.016;exitDx=0;exitDy=0;exitPerimeter=0;entryX=0.75;entryY=0;entryDx=0;entryDy=0;fillColor=#fa6800;" edge="1" parent="1" source="5TCaiy2GnwxlKZLwlHfc-169" target="5TCaiy2GnwxlKZLwlHfc-183">
          <mxGeometry width="50" height="50" relative="1" as="geometry">
            <mxPoint x="3960.0000000000005" y="560" as="sourcePoint" />
            <mxPoint x="4106.72" y="607.48" as="targetPoint" />
          </mxGeometry>
        </mxCell>
        <mxCell id="5TCaiy2GnwxlKZLwlHfc-185" value="" style="endArrow=none;dashed=1;html=1;strokeWidth=2;rounded=0;entryX=0.967;entryY=0.242;entryDx=0;entryDy=0;entryPerimeter=0;exitX=0;exitY=1;exitDx=0;exitDy=0;strokeColor=#FF6666;" edge="1" parent="1" source="5TCaiy2GnwxlKZLwlHfc-183" target="5TCaiy2GnwxlKZLwlHfc-126">
          <mxGeometry width="50" height="50" relative="1" as="geometry">
            <mxPoint x="3379.9999999999995" y="720" as="sourcePoint" />
            <mxPoint x="3391.9300000000007" y="1092.0100000000002" as="targetPoint" />
          </mxGeometry>
        </mxCell>
        <mxCell id="5TCaiy2GnwxlKZLwlHfc-186" value="&lt;h1&gt;events&lt;/h1&gt;&lt;p&gt;события произошедшие в рамках этого случая, не описанные документом&lt;/p&gt;" style="text;html=1;strokeColor=#C73500;fillColor=#FFCD28;spacing=5;spacingTop=-20;whiteSpace=wrap;overflow=hidden;rounded=0;fontColor=#000000;gradientColor=#FA6800;" vertex="1" parent="1">
          <mxGeometry x="3470" y="440" width="190" height="100" as="geometry" />
        </mxCell>
        <mxCell id="5TCaiy2GnwxlKZLwlHfc-187" value="" style="endArrow=classic;html=1;rounded=0;strokeColor=#C73500;exitX=0;exitY=1;exitDx=0;exitDy=0;entryX=1.002;entryY=0.38;entryDx=0;entryDy=0;fillColor=#fa6800;entryPerimeter=0;" edge="1" parent="1" source="5TCaiy2GnwxlKZLwlHfc-169" target="5TCaiy2GnwxlKZLwlHfc-186">
          <mxGeometry width="50" height="50" relative="1" as="geometry">
            <mxPoint x="3850.000000000002" y="458.2800000000002" as="sourcePoint" />
            <mxPoint x="3919.26" y="757" as="targetPoint" />
          </mxGeometry>
        </mxCell>
        <mxCell id="5TCaiy2GnwxlKZLwlHfc-188" value="" style="endArrow=none;dashed=1;html=1;strokeWidth=2;rounded=0;entryX=0;entryY=0.75;entryDx=0;entryDy=0;exitX=1;exitY=0.5;exitDx=0;exitDy=0;strokeColor=#FF6666;" edge="1" parent="1" source="5TCaiy2GnwxlKZLwlHfc-54" target="5TCaiy2GnwxlKZLwlHfc-186">
          <mxGeometry width="50" height="50" relative="1" as="geometry">
            <mxPoint x="2500" y="772" as="sourcePoint" />
            <mxPoint x="3360.0600000000004" y="901.0099999999998" as="targetPoint" />
          </mxGeometry>
        </mxCell>
        <mxCell id="5TCaiy2GnwxlKZLwlHfc-189" value="&lt;h1&gt;kpis&lt;/h1&gt;&lt;p&gt;значения kpi описанные в результате случая, но не те что есть в событиях и документах&lt;/p&gt;" style="text;html=1;strokeColor=#C73500;fillColor=#0050EF;spacing=5;spacingTop=-20;whiteSpace=wrap;overflow=hidden;rounded=0;fontColor=#000000;gradientColor=#FA6800;" vertex="1" parent="1">
          <mxGeometry x="3030" y="200" width="190" height="100" as="geometry" />
        </mxCell>
        <mxCell id="5TCaiy2GnwxlKZLwlHfc-190" value="" style="endArrow=classic;html=1;rounded=0;strokeColor=#C73500;exitX=-0.015;exitY=0.454;exitDx=0;exitDy=0;entryX=0.978;entryY=1.003;entryDx=0;entryDy=0;fillColor=#fa6800;entryPerimeter=0;exitPerimeter=0;" edge="1" parent="1" source="5TCaiy2GnwxlKZLwlHfc-169" target="5TCaiy2GnwxlKZLwlHfc-189">
          <mxGeometry width="50" height="50" relative="1" as="geometry">
            <mxPoint x="4067.573593128861" y="482.2842712474262" as="sourcePoint" />
            <mxPoint x="3670.38" y="488" as="targetPoint" />
          </mxGeometry>
        </mxCell>
        <mxCell id="5TCaiy2GnwxlKZLwlHfc-191" value="" style="endArrow=none;dashed=1;html=1;strokeWidth=2;rounded=0;entryX=0;entryY=0.5;entryDx=0;entryDy=0;exitX=0.75;exitY=1;exitDx=0;exitDy=0;strokeColor=#FF6666;" edge="1" parent="1" source="5TCaiy2GnwxlKZLwlHfc-22" target="5TCaiy2GnwxlKZLwlHfc-189">
          <mxGeometry width="50" height="50" relative="1" as="geometry">
            <mxPoint x="2413.25" y="-279.5799999999999" as="sourcePoint" />
            <mxPoint x="2617.5" y="57.52999999999997" as="targetPoint" />
          </mxGeometry>
        </mxCell>
        <mxCell id="5TCaiy2GnwxlKZLwlHfc-192" value="&lt;h1&gt;encouters&lt;/h1&gt;&lt;p&gt;случаи, относящиеся к кейсу&lt;/p&gt;" style="text;html=1;strokeColor=#001DBC;fillColor=#FA6800;spacing=5;spacingTop=-20;whiteSpace=wrap;overflow=hidden;rounded=0;fontColor=#ffffff;gradientColor=#60A917;" vertex="1" parent="1">
          <mxGeometry x="2960" y="370" width="180" height="70" as="geometry" />
        </mxCell>
        <mxCell id="5TCaiy2GnwxlKZLwlHfc-193" value="" style="endArrow=classic;html=1;rounded=0;strokeColor=#009900;exitX=1;exitY=0.375;exitDx=0;exitDy=0;exitPerimeter=0;entryX=0;entryY=0.5;entryDx=0;entryDy=0;" edge="1" parent="1" source="2c924340bb9dbf6c-3" target="5TCaiy2GnwxlKZLwlHfc-192">
          <mxGeometry width="50" height="50" relative="1" as="geometry">
            <mxPoint x="2693.4399999999996" y="451.84000000000015" as="sourcePoint" />
            <mxPoint x="2706.42" y="191.03999999999996" as="targetPoint" />
          </mxGeometry>
        </mxCell>
        <mxCell id="5TCaiy2GnwxlKZLwlHfc-194" value="" style="endArrow=none;dashed=1;html=1;strokeWidth=2;rounded=0;entryX=0;entryY=0;entryDx=0;entryDy=0;exitX=1;exitY=0.5;exitDx=0;exitDy=0;strokeColor=#FF6666;" edge="1" parent="1" source="5TCaiy2GnwxlKZLwlHfc-192" target="5TCaiy2GnwxlKZLwlHfc-169">
          <mxGeometry width="50" height="50" relative="1" as="geometry">
            <mxPoint x="2664.0199999999995" y="758" as="sourcePoint" />
            <mxPoint x="2675.95" y="1130.0099999999998" as="targetPoint" />
          </mxGeometry>
        </mxCell>
      </root>
    </mxGraphModel>
  </diagram>
</mxfile>
